<svg xmlns="http://www.w3.org/2000/svg" viewBox="0 0 62 99" width="62" height="99">
	<style>
		tspan { white-space:pre }
		.shp0 { fill: #18cfab } 
	</style>
	<g id="4 option">
		<g id="3">
			<path id="Forma 1" class="shp0" d="M49 77C49 78.65 47.66 80 46 80L16 80C14.34 80 13 78.65 13 77C13 75.34 14.34 74 16 74L46 74C47.66 74 49 75.34 49 77ZM46 83L16 83C14.34 83 13 84.34 13 86C13 87.66 14.34 89 16 89L46 89C47.66 89 49 87.66 49 86C49 84.34 47.66 83 46 83ZM25 98L37 98C40.32 98 43 95.31 43 92L19 92C19 95.31 21.68 98 25 98ZM61 32C61 48.31 51.17 50.21 49.32 68C49.32 69.65 47.98 71 46.32 71L15.68 71C14.02 71 12.68 69.65 12.68 68L12.67 68C10.83 50.21 1 48.31 1 32C1 15.43 14.43 2 31 2C47.57 2 61 15.43 61 32ZM43.15 23C8.27 31.25 25.15 53 25.15 53C25.15 41 33.96 38.18 34.15 38.56C27.96 44.56 25.15 65 25.15 65L31.15 65C31.15 65 31.15 59 31.15 53C48.21 53.93 43.15 25.06 43.15 23Z" />
		</g>
	</g>
</svg>